<svg xmlns="http://www.w3.org/2000/svg" width="16" height="16" viewBox="0 0 16 16">
  <path d="M10,0 L10,2.60002 C12.2108812,3.04881281 13.8920863,4.95644867 13.9950026,7.27443311 L14,7.5 L14,11.2676 C14.5978,11.6134 15,12.2597 15,13 C15,14.1046 14.1046,15 13,15 C11.8954,15 11,14.1046 11,13 C11,12.3166462 11.342703,11.713387 11.8656124,11.3526403 L12,11.2676 L12,7.5 C12,6.259091 11.246593,5.19415145 10.1722389,4.73766702 L10,4.67071 L10,7 L6,3.5 L10,0 Z M3,1 C4.10457,1 5,1.89543 5,3 C5,3.68333538 4.65729704,4.28663574 4.13438762,4.6473967 L4,4.73244 L4,11.2676 C4.5978,11.6134 5,12.2597 5,13 C5,14.1046 4.10457,15 3,15 C1.89543,15 1,14.1046 1,13 C1,12.3166462 1.34270296,11.713387 1.86561238,11.3526403 L2,11.2676 L2,4.73244 C1.4022,4.38663 1,3.74028 1,3 C1,1.89543 1.89543,1 3,1 Z"/>
</svg>
